<MAP_LAYOUT>
--------s--------;
-----------------;
-----------------;
-----------------;
---w-w-www-w-w---;
----w--w-w-w-w---;
----w--www-www---;
-----------------;
-w---w www-ww--w-;
-w-w-w--w--w-w-w-;
--w-w--www-w--ww-;
-----------------;
-----------------;
-----------------;
--------e--------;
</MAP_LAYOUT>